{
  "type": "service_account",
  "project_id": "lunch-84e13",
  "private_key_id": "82ce34c7ee08d3e12612b04db7fafc7dfe238e40",
  "private_key": "-----BEGIN PRIVATE KEY-----\nMIIEvgIBADANBgkqhkiG9w0BAQEFAASCBKgwggSkAgEAAoIBAQCo0ZDaIRcU8AGD\nTiWoygzcuF4HKq1gkGaCmVAcgKkcE8Qt7oeHJVAlsS9YLHGE7y+K96drS+msRvgG\nCT2DVO4UKCqCuQA9iReAg30ySaZxE/AsRPQl0ZrlJsdf1q5JzaFixuXs1QgnbUoY\n571ZiF/bwTkF7QzlJc3w+/hZBgOScKKxMGPWOBLSKmzCJr7Mz5pITqVJvmBQrRia\nnXa6OQgfB0ZaHanVboCobRkAicIZmgpXSnAFbLd7qqHN5KKfEp+tD8XC+DQ7Fm0I\n1go7JNNtGSgJqk4CWcseoN5/S0SelLDX9U2ozvvxJk0QeEaNb4wEd9EJfVZcrYlm\ndC+YQnInAgMBAAECggEAT3vwKAupavW/uJtsNsb+/FMgDl7FJ/CFG1tk8S6QsMQL\nu5aRoAts63o7sNeoES9uoo8M+ANTf4Ygk/L4z+OGft4Uedzx5IcuFheStEEiCR6a\nl7VVgJLqS5cRCyowgFY9dJzyN6prvuiBmS1PJR8FBxo4J3afeiptBtgT65Jdzy3N\nQ+Gf3AMDbjXVge5fXzxh7xeDmTDUOeET28N5uCTcPhwR2CvahVE2NNA4MIV8brgw\nmxBz063pGlvFVn8ko+w2gT1OxD1xCk4zpxjXJhVqNuHJhhg+tAWh8m5p92qQxpvu\nBmj6uYcdpowOf50HbA4SQk8Ixfkwjww0yIRBSmaTrQKBgQDnSGJt4UokzJhLIicw\n89n+7vroa5yzgtfx7DWvhFg1m3UzvddMep7t56l0NlueviC3oRGfifL3EiH5ek8A\nokhTa4hrMmp24nYT6RQtB/NEw27t5kJGmM6XzvuRY5s5JCNc0g/9zHkTi5OUHAxE\nXtaw0JEaiOx/y6VXgsYw8JIiLQKBgQC63D0GCt/nsq/Y9UqFym0P5/9tbnQQVLW/\nOtICrKZZiPtAZpuFraUeugYiv7iYGGEdjeE+/X3ikyqi215rKwHF11PCCr8Z7sg6\nyAjc+xJTr1Gor4LA6StxXkC3NX5bDnuxi9rKeWF5yoGaMscnOq1DUf12DRAJAuDL\n3af2/fCeIwKBgQCgN+y34dHTHEiEA+zSZJsnl7YJPEMZuBKQbOnj5PKWcFMIvQJg\n4LEobctdzio6FcvkaZgjxRSjQ9R1Vt1TuxgPcfbXC93k7YyOznBDobZMdHZsJ47S\nCRlU4PY1CaOGOhqlOoAJeZSGjbJ2b9evpWNkqZdbom7zOMgZj2ZskLsrIQKBgBMI\nKYL7CpEbxwNPAHceBfuvwnlP3axoJFbE0+0Hzq2h4Q1PJhn4dK/rfIJ/inqbSRDs\niXuT8AVqvdX2h+hcagLPiq1h0NMAWg56n0R6ogQ6ABQxRB0H4q/aTLccULFPiVOt\nDey/bikscgTVlSkutcT8jdc/P1nbnC/HdLsYZDCHAoGBAI8whOmLBEM9Qx9HHK36\n20ulod0x/Wz2Q+IfEOkp6iCeSmLIXidOXu+PrT1uV3fnyN/jZFZcpNfbxug53Mu+\nH3KBS+6HdnSOZqKiW9/5WlzrpEzxDBwcTh8VY6YoBpBpSSjEfsY3SjLCfSZ2o9vL\nWnuBCrkTziLHSQpdO9ulL1e8\n-----END PRIVATE KEY-----\n",
  "client_email": "kostyankiski@lunch-84e13.iam.gserviceaccount.com",
  "client_id": "111617955995010521480",
  "auth_uri": "https://accounts.google.com/o/oauth2/auth",
  "token_uri": "https://accounts.google.com/o/oauth2/token",
  "auth_provider_x509_cert_url": "https://www.googleapis.com/oauth2/v1/certs",
  "client_x509_cert_url": "https://www.googleapis.com/robot/v1/metadata/x509/kostyankiski%40lunch-84e13.iam.gserviceaccount.com"
}
